{"failedCount":0,"prefixedPath":"classpath:kdemo\/features\/getcalldemo.feature","packageQualifiedName":"kdemo.features.getcalldemo","loopIndex":-1,"relativePath":"kdemo\/features\/getcalldemo.feature","scenarioResults":[{"sectionIndex":0,"stepResults":[{"result":{"nanos":126261300,"startTime":1723273052153,"endTime":1723273052279,"millis":126.2613,"status":"passed"},"step":{"background":true,"line":3,"prefix":"*","index":0,"text":"url 'https:\/\/reqres.in\/api\/'"}},{"result":{"nanos":1084900,"startTime":1723273052282,"endTime":1723273052283,"millis":1.0849,"status":"passed"},"step":{"line":6,"prefix":"Given","index":0,"text":"path 'users\/2'"}},{"result":{"nanos":1954808800,"startTime":1723273052284,"endTime":1723273054239,"millis":1954.8088,"status":"passed"},"step":{"line":7,"prefix":"When","index":1,"text":"method GET"},"stepLog":"12:27:32.873 request:\n1 > GET https:\/\/reqres.in\/api\/users\/2\n1 > Host: reqres.in\n1 > Connection: Keep-Alive\n1 > User-Agent: Apache-HttpClient\/4.5.14 (Java\/21.0.4)\n1 > Accept-Encoding: gzip,deflate\n\n\n12:27:34.084 response time in milliseconds: 1191\n1 < 200\n1 < Date: Sat, 10 Aug 2024 06:57:34 GMT\n1 < Content-Type: application\/json; charset=utf-8\n1 < Transfer-Encoding: chunked\n1 < Connection: keep-alive\n1 < Report-To: {\"group\":\"heroku-nel\",\"max_age\":3600,\"endpoints\":[{\"url\":\"https:\/\/nel.heroku.com\/reports?ts=1723240210&sid=c4c9725f-1ab0-44d8-820f-430df2718e11&s=37cTq8tRSDIxbII5UmW%2FNS2iyf%2FfOOSPkjKKksdUp3o%3D\"}]}\n1 < Reporting-Endpoints: heroku-nel=https:\/\/nel.heroku.com\/reports?ts=1723240210&sid=c4c9725f-1ab0-44d8-820f-430df2718e11&s=37cTq8tRSDIxbII5UmW%2FNS2iyf%2FfOOSPkjKKksdUp3o%3D\n1 < Nel: {\"report_to\":\"heroku-nel\",\"max_age\":3600,\"success_fraction\":0.005,\"failure_fraction\":0.05,\"response_headers\":[\"Via\"]}\n1 < X-Powered-By: Express\n1 < Access-Control-Allow-Origin: *\n1 < Etag: W\/\"118-pbdwwFo9SKNhD3Lx5iHJyngpq00\"\n1 < Via: 1.1 vegur\n1 < Cache-Control: max-age=14400\n1 < CF-Cache-Status: HIT\n1 < Age: 3698\n1 < Vary: Accept-Encoding\n1 < Server: cloudflare\n1 < CF-RAY: 8b0e17ad1f5e0694-MAA\n{\"data\":{\"id\":2,\"email\":\"janet.weaver@reqres.in\",\"first_name\":\"Janet\",\"last_name\":\"Weaver\",\"avatar\":\"https:\/\/reqres.in\/img\/faces\/2-image.jpg\"},\"support\":{\"url\":\"https:\/\/reqres.in\/#support-heading\",\"text\":\"To keep ReqRes free, contributions towards server costs are appreciated!\"}}\n\n"},{"result":{"nanos":18237400,"startTime":1723273054238,"endTime":1723273054256,"millis":18.2374,"status":"passed"},"step":{"line":8,"prefix":"Then","index":2,"text":"status 200"}}],"executorName":"main","line":5,"name":"Get the details of user 2","description":"","durationMillis":2100.3924,"startTime":1723273052128,"failed":false,"refId":"[1:5]","endTime":1723273054255,"exampleIndex":-1},{"sectionIndex":1,"stepResults":[{"result":{"nanos":6374200,"startTime":1723273054317,"endTime":1723273054323,"millis":6.3742,"status":"passed"},"step":{"background":true,"line":3,"prefix":"*","index":0,"text":"url 'https:\/\/reqres.in\/api\/'"}},{"result":{"nanos":3213900,"startTime":1723273054327,"endTime":1723273054330,"millis":3.2139,"status":"passed"},"step":{"line":11,"prefix":"Given","index":0,"text":"path 'users'"}},{"result":{"nanos":69635100,"startTime":1723273054331,"endTime":1723273054401,"millis":69.6351,"status":"passed"},"step":{"line":12,"prefix":"And","index":1,"text":"request {\"name\": \"morpheus\",\"job\": \"leader\"}"}},{"result":{"nanos":717005500,"startTime":1723273054402,"endTime":1723273055119,"millis":717.0055,"status":"passed"},"step":{"line":13,"prefix":"When","index":2,"text":"method post"},"stepLog":"12:27:34.570 request:\n1 > POST https:\/\/reqres.in\/api\/users\n1 > Content-Type: application\/json; charset=UTF-8\n1 > Content-Length: 34\n1 > Host: reqres.in\n1 > Connection: Keep-Alive\n1 > User-Agent: Apache-HttpClient\/4.5.14 (Java\/21.0.4)\n1 > Accept-Encoding: gzip,deflate\n{\"name\":\"morpheus\",\"job\":\"leader\"}\n\n12:27:35.101 response time in milliseconds: 531\n1 < 201\n1 < Date: Sat, 10 Aug 2024 06:57:35 GMT\n1 < Content-Type: application\/json; charset=utf-8\n1 < Content-Length: 84\n1 < Connection: keep-alive\n1 < Report-To: {\"group\":\"heroku-nel\",\"max_age\":3600,\"endpoints\":[{\"url\":\"https:\/\/nel.heroku.com\/reports?ts=1723273055&sid=c4c9725f-1ab0-44d8-820f-430df2718e11&s=k%2F2mlHTRw3ppinDSxJe5dXOFWSryJjogZE9gyexxBmo%3D\"}]}\n1 < Reporting-Endpoints: heroku-nel=https:\/\/nel.heroku.com\/reports?ts=1723273055&sid=c4c9725f-1ab0-44d8-820f-430df2718e11&s=k%2F2mlHTRw3ppinDSxJe5dXOFWSryJjogZE9gyexxBmo%3D\n1 < Nel: {\"report_to\":\"heroku-nel\",\"max_age\":3600,\"success_fraction\":0.005,\"failure_fraction\":0.05,\"response_headers\":[\"Via\"]}\n1 < X-Powered-By: Express\n1 < Access-Control-Allow-Origin: *\n1 < Etag: W\/\"54-ElNe+dfEakq0HTpLVKWXQPF4ZuU\"\n1 < Via: 1.1 vegur\n1 < CF-Cache-Status: DYNAMIC\n1 < Server: cloudflare\n1 < CF-RAY: 8b0e17b13ba27f80-MAA\n{\"name\":\"morpheus\",\"job\":\"leader\",\"id\":\"372\",\"createdAt\":\"2024-08-10T06:57:35.163Z\"}\n\n"},{"result":{"nanos":32600,"startTime":1723273055118,"endTime":1723273055118,"millis":0.0326,"status":"passed"},"step":{"line":14,"prefix":"Then","index":3,"text":"status 201"}},{"result":{"nanos":252460400,"startTime":1723273055118,"endTime":1723273055370,"millis":252.4604,"status":"passed"},"step":{"line":15,"prefix":"Then","index":4,"text":"match response == '#object'"}},{"result":{"nanos":4926700,"startTime":1723273055371,"endTime":1723273055376,"millis":4.9267,"status":"passed"},"step":{"line":16,"prefix":"Then","index":5,"text":"match response.name =='morpheus'"}}],"executorName":"main","line":10,"name":"Create a person","description":"","durationMillis":1053.6484,"startTime":1723273054317,"failed":false,"refId":"[2:10]","endTime":1723273055377,"exampleIndex":-1},{"sectionIndex":2,"stepResults":[{"result":{"nanos":489200,"startTime":1723273055414,"endTime":1723273055414,"millis":0.4892,"status":"passed"},"step":{"background":true,"line":3,"prefix":"*","index":0,"text":"url 'https:\/\/reqres.in\/api\/'"}},{"result":{"nanos":6073900,"startTime":1723273055414,"endTime":1723273055420,"millis":6.0739,"status":"passed"},"step":{"line":19,"prefix":"Given","index":0,"text":"path 'users'"}},{"result":{"nanos":3326500,"startTime":1723273055421,"endTime":1723273055424,"millis":3.3265,"status":"passed"},"step":{"line":20,"prefix":"And","index":1,"text":"param page = \"2\""}},{"result":{"nanos":120273100,"startTime":1723273055421,"endTime":1723273055541,"millis":120.2731,"status":"passed"},"step":{"line":21,"prefix":"When","index":2,"text":"method GET"},"stepLog":"12:27:35.421 request:\n1 > GET https:\/\/reqres.in\/api\/users?page=2\n1 > Host: reqres.in\n1 > Connection: Keep-Alive\n1 > User-Agent: Apache-HttpClient\/4.5.14 (Java\/21.0.4)\n1 > Accept-Encoding: gzip,deflate\n\n\n12:27:35.540 response time in milliseconds: 119\n1 < 200\n1 < Date: Sat, 10 Aug 2024 06:57:35 GMT\n1 < Content-Type: application\/json; charset=utf-8\n1 < Transfer-Encoding: chunked\n1 < Connection: keep-alive\n1 < Report-To: {\"group\":\"heroku-nel\",\"max_age\":3600,\"endpoints\":[{\"url\":\"https:\/\/nel.heroku.com\/reports?ts=1723263375&sid=c4c9725f-1ab0-44d8-820f-430df2718e11&s=siIa%2BSDplrLHfk0tQzmPrO2q74UM%2BZ9zI1gGItxT%2BMs%3D\"}]}\n1 < Reporting-Endpoints: heroku-nel=https:\/\/nel.heroku.com\/reports?ts=1723263375&sid=c4c9725f-1ab0-44d8-820f-430df2718e11&s=siIa%2BSDplrLHfk0tQzmPrO2q74UM%2BZ9zI1gGItxT%2BMs%3D\n1 < Nel: {\"report_to\":\"heroku-nel\",\"max_age\":3600,\"success_fraction\":0.005,\"failure_fraction\":0.05,\"response_headers\":[\"Via\"]}\n1 < X-Powered-By: Express\n1 < Access-Control-Allow-Origin: *\n1 < Etag: W\/\"406-ut0vzoCuidvyMf8arZpMpJ6ZRDw\"\n1 < Via: 1.1 vegur\n1 < Cache-Control: max-age=14400\n1 < CF-Cache-Status: HIT\n1 < Age: 2465\n1 < Vary: Accept-Encoding\n1 < Server: cloudflare\n1 < CF-RAY: 8b0e17b66dcb801c-MAA\n{\"page\":2,\"per_page\":6,\"total\":12,\"total_pages\":2,\"data\":[{\"id\":7,\"email\":\"michael.lawson@reqres.in\",\"first_name\":\"Michael\",\"last_name\":\"Lawson\",\"avatar\":\"https:\/\/reqres.in\/img\/faces\/7-image.jpg\"},{\"id\":8,\"email\":\"lindsay.ferguson@reqres.in\",\"first_name\":\"Lindsay\",\"last_name\":\"Ferguson\",\"avatar\":\"https:\/\/reqres.in\/img\/faces\/8-image.jpg\"},{\"id\":9,\"email\":\"tobias.funke@reqres.in\",\"first_name\":\"Tobias\",\"last_name\":\"Funke\",\"avatar\":\"https:\/\/reqres.in\/img\/faces\/9-image.jpg\"},{\"id\":10,\"email\":\"byron.fields@reqres.in\",\"first_name\":\"Byron\",\"last_name\":\"Fields\",\"avatar\":\"https:\/\/reqres.in\/img\/faces\/10-image.jpg\"},{\"id\":11,\"email\":\"george.edwards@reqres.in\",\"first_name\":\"George\",\"last_name\":\"Edwards\",\"avatar\":\"https:\/\/reqres.in\/img\/faces\/11-image.jpg\"},{\"id\":12,\"email\":\"rachel.howell@reqres.in\",\"first_name\":\"Rachel\",\"last_name\":\"Howell\",\"avatar\":\"https:\/\/reqres.in\/img\/faces\/12-image.jpg\"}],\"support\":{\"url\":\"https:\/\/reqres.in\/#support-heading\",\"text\":\"To keep ReqRes free, contributions towards server costs are appreciated!\"}}\n\n"},{"result":{"nanos":20700,"startTime":1723273055540,"endTime":1723273055540,"millis":0.0207,"status":"passed"},"step":{"line":22,"prefix":"Then","index":3,"text":"status 200"}},{"result":{"nanos":18702400,"startTime":1723273055540,"endTime":1723273055559,"millis":18.7024,"status":"passed"},"step":{"line":23,"prefix":"Then","index":4,"text":"match response.page == 2"}}],"executorName":"main","line":18,"name":"Get the list of users for page 2","description":"","durationMillis":148.8858,"startTime":1723273055414,"failed":false,"refId":"[3:18]","endTime":1723273055564,"exampleIndex":-1}],"callDepth":0,"name":"Get the details of user 2","description":"","resultDate":"2024-08-10 12:27:35 pm","durationMillis":3302.9266,"passedCount":3}